{
	"capabilities":
			[
				{
					"browserName": "firefox",
					"platform":"WINDOWS",
					"maxInstances": 5,
					"seleniumProtocol": "WebDriver"
				},
				{
					"browserName": "chrome",
					"platform":"WINDOWS",
					"maxInstances": 5,
					"seleniumProtocol": "WebDriver"
				},
				{
					"browserName": "internet explorer",
					"platform":"WINDOWS",
					"maxInstances": 1,
					"seleniumProtocol": "WebDriver"
				}
			],
	"configuration":
	{
		"proxy": "org.openqa.grid.selenium.proxy.DefaultRemoteProxy",
		"maxSession": 5,
		"port": 5555,
		"host": ip,
		"register": true,
		"registerCycle": 5000,
		"hubPort": 4444,
		"hubHost": ip
	}
}